…
## Real-time sensor data

Reading real-time humidity sensor of one of your devices can be done
like this:

``` r
thing_id = "b6822400-2f35-4d93-b3e7-be919bdc5eba"
property_id = "d1134fe1-6519-49f1-afd8-7fe9e891e778" # Humidity

data_ts = things_properties_timeseries(thing_id = thing_id,
                                       property_id = property_id,
                                       desc = FALSE, interval = 3600)
#> v Method succeeded
data_ts
#> # A tibble: 337 x 2
#>    time                value
#>    <dttm>              <dbl>
#>  1 2022-08-25 10:00:00  32.3
#>  2 2022-08-25 11:00:00  32.4
#>  3 2022-08-25 12:00:00  32.6
#>  4 2022-08-25 13:00:00  32.8
#>  5 2022-08-25 14:00:00  33.0
#>  6 2022-08-25 15:00:00  33.1
#>  7 2022-08-25 16:00:00  33.2
#>  8 2022-08-25 17:00:00  33.4
#>  9 2022-08-25 18:00:00  33.3
#> 10 2022-08-25 19:00:00  32.7
#> # ... with 327 more rows
```
…
